<?xml version="1.0" encoding="UTF-8" standalone="no"?>
<!DOCTYPE svg PUBLIC "-//W3C//DTD SVG 1.1//EN"
 "http://www.w3.org/Graphics/SVG/1.1/DTD/svg11.dtd">
<!-- Generated by graphviz version 2.38.0 (20140413.2041)
 -->
<!-- Title: G Pages: 1 -->
<svg width="2889pt" height="2005pt"
 viewBox="0.00 0.00 2889.00 2004.59" xmlns="http://www.w3.org/2000/svg" xmlns:xlink="http://www.w3.org/1999/xlink">
<g id="graph0" class="graph" transform="scale(1 1) rotate(0) translate(4 2000.59)">
<title>G</title>
<polygon fill="white" stroke="none" points="-4,4 -4,-2000.59 2885,-2000.59 2885,4 -4,4"/>
<g id="clust1" class="cluster"><title>cluster_fmri_preprocessing</title>
<polygon fill="none" stroke="#999999" points="250,-52.5928 250,-704.593 2390,-704.593 2390,-52.5928 250,-52.5928"/>
<text text-anchor="middle" x="1320" y="-689.393" font-family="Times,serif" font-size="14.00">fmri_preprocessing</text>
</g>
<g id="clust2" class="cluster"><title>cluster_group_ica_maps</title>
<polygon fill="none" stroke="#999999" points="1394,-1583.59 1394,-1988.59 2026,-1988.59 2026,-1583.59 1394,-1583.59"/>
<text text-anchor="middle" x="1710" y="-1973.39" font-family="Times,serif" font-size="14.00">group_ica_maps</text>
</g>
<g id="clust3" class="cluster"><title>cluster_partial_volume_maps</title>
<polygon fill="none" stroke="#999999" points="8,-712.593 8,-1292.59 2023.5,-1292.59 2023.5,-712.593 8,-712.593"/>
<text text-anchor="middle" x="1015.75" y="-1277.39" font-family="Times,serif" font-size="14.00">partial_volume_maps</text>
</g>
<g id="clust4" class="cluster"><title>cluster_dual_regression</title>
<polygon fill="none" stroke="#999999" points="1762.5,-1300.59 1762.5,-1575.59 2873,-1575.59 2873,-1300.59 1762.5,-1300.59"/>
<text text-anchor="middle" x="2317.75" y="-1560.39" font-family="Times,serif" font-size="14.00">dual_regression</text>
</g>
<!-- fmri_images -->
<g id="node1" class="node"><title>fmri_images</title>
<polygon fill="#caff70" stroke="black" points="258,-371.593 258,-423.593 362,-423.593 362,-371.593 258,-371.593"/>
<text text-anchor="middle" x="310" y="-406.793" font-family="Times,serif" font-size="16.00">fmri_images</text>
<polyline fill="none" stroke="black" points="258,-397.593 362,-397.593 "/>
<text text-anchor="middle" x="268" y="-380.793" font-family="Times,serif" font-size="16.00"> </text>
<polyline fill="none" stroke="black" points="278,-371.593 278,-397.593 "/>
<text text-anchor="middle" x="320" y="-380.793" font-family="Times,serif" font-size="16.00">output [N]</text>
</g>
<!-- dicom_to_nifti -->
<g id="node5" class="node"><title>dicom_to_nifti</title>
<polygon fill="#e5e5e5" stroke="black" points="576,-371.593 576,-579.593 822,-579.593 822,-371.593 576,-371.593"/>
<text text-anchor="middle" x="699" y="-562.793" font-family="Times,serif" font-size="16.00">dicom_to_nifti</text>
<polyline fill="none" stroke="black" points="576,-553.593 822,-553.593 "/>
<text text-anchor="middle" x="641" y="-536.793" font-family="Times,serif" font-size="16.00">anonymize_flag</text>
<polyline fill="none" stroke="black" points="576,-527.593 706,-527.593 "/>
<text text-anchor="middle" x="641" y="-510.793" font-family="Times,serif" font-size="16.00">collapse_flag</text>
<polyline fill="none" stroke="black" points="576,-501.593 706,-501.593 "/>
<text text-anchor="middle" x="641" y="-484.793" font-family="Times,serif" font-size="16.00">gzip_flag</text>
<polyline fill="none" stroke="black" points="576,-475.593 706,-475.593 "/>
<text text-anchor="middle" x="641" y="-458.793" font-family="Times,serif" font-size="16.00">reorient_flag</text>
<polyline fill="none" stroke="black" points="576,-449.593 706,-449.593 "/>
<text text-anchor="middle" x="641" y="-432.793" font-family="Times,serif" font-size="16.00">crop_flag</text>
<polyline fill="none" stroke="black" points="576,-423.593 706,-423.593 "/>
<text text-anchor="middle" x="641" y="-406.793" font-family="Times,serif" font-size="16.00">report_flag</text>
<polyline fill="none" stroke="black" points="576,-397.593 706,-397.593 "/>
<text text-anchor="middle" x="641" y="-380.793" font-family="Times,serif" font-size="16.00">[N] dicom_image</text>
<polyline fill="none" stroke="black" points="706,-371.593 706,-553.593 "/>
<text text-anchor="middle" x="764" y="-531.793" font-family="Times,serif" font-size="16.00">directory</text>
<polyline fill="none" stroke="black" points="706,-517.593 822,-517.593 "/>
<text text-anchor="middle" x="764" y="-495.793" font-family="Times,serif" font-size="16.00">image [N]</text>
<polyline fill="none" stroke="black" points="706,-481.593 822,-481.593 "/>
<text text-anchor="middle" x="764" y="-459.293" font-family="Times,serif" font-size="16.00">image_reorient</text>
<polyline fill="none" stroke="black" points="706,-444.593 822,-444.593 "/>
<text text-anchor="middle" x="764" y="-422.793" font-family="Times,serif" font-size="16.00">image_cropped</text>
<polyline fill="none" stroke="black" points="706,-408.593 822,-408.593 "/>
<text text-anchor="middle" x="764" y="-386.293" font-family="Times,serif" font-size="16.00">report</text>
</g>
<!-- fmri_images&#45;&gt;dicom_to_nifti -->
<g id="edge34" class="edge"><title>fmri_images:o_output&#45;&gt;dicom_to_nifti:i_dicom_image</title>
<path fill="none" stroke="black" d="M363,-384.593C453.726,-384.593 478.932,-384.593 564.795,-384.593"/>
<polygon fill="black" stroke="black" points="565,-388.093 575,-384.593 565,-381.093 565,-388.093"/>
</g>
<!-- fmri_tr -->
<g id="node2" class="node"><title>fmri_tr</title>
<polygon fill="#caff70" stroke="black" points="1022.5,-224.593 1022.5,-276.593 1129.5,-276.593 1129.5,-224.593 1022.5,-224.593"/>
<text text-anchor="middle" x="1076" y="-259.793" font-family="Times,serif" font-size="16.00">fmri_tr</text>
<polyline fill="none" stroke="black" points="1022.5,-250.593 1129.5,-250.593 "/>
<text text-anchor="middle" x="1032.5" y="-233.793" font-family="Times,serif" font-size="16.00"> </text>
<polyline fill="none" stroke="black" points="1042.5,-224.593 1042.5,-250.593 "/>
<text text-anchor="middle" x="1086" y="-233.793" font-family="Times,serif" font-size="16.00">output [M]</text>
</g>
<!-- feat_preprocessing -->
<g id="node7" class="node"><title>feat_preprocessing</title>
<polygon fill="#e5e5e5" stroke="black" points="1254,-152.593 1254,-672.593 1654,-672.593 1654,-152.593 1254,-152.593"/>
<text text-anchor="middle" x="1454" y="-655.793" font-family="Times,serif" font-size="16.00">feat_preprocessing</text>
<polyline fill="none" stroke="black" points="1254,-646.593 1654,-646.593 "/>
<text text-anchor="middle" x="1325.5" y="-593.793" font-family="Times,serif" font-size="16.00">[O] setup_file</text>
<polyline fill="none" stroke="black" points="1254,-548.593 1397,-548.593 "/>
<text text-anchor="middle" x="1325.5" y="-495.293" font-family="Times,serif" font-size="16.00">[N] fmri_images</text>
<polyline fill="none" stroke="black" points="1254,-449.593 1397,-449.593 "/>
<text text-anchor="middle" x="1325.5" y="-396.293" font-family="Times,serif" font-size="16.00">[M] TR</text>
<polyline fill="none" stroke="black" points="1254,-350.593 1397,-350.593 "/>
<text text-anchor="middle" x="1325.5" y="-297.293" font-family="Times,serif" font-size="16.00">[Q] t1_brain_image</text>
<polyline fill="none" stroke="black" points="1254,-251.593 1397,-251.593 "/>
<text text-anchor="middle" x="1325.5" y="-198.293" font-family="Times,serif" font-size="16.00">t1_image</text>
<polyline fill="none" stroke="black" points="1397,-152.593 1397,-646.593 "/>
<text text-anchor="middle" x="1525.5" y="-629.793" font-family="Times,serif" font-size="16.00">feat_basename</text>
<polyline fill="none" stroke="black" points="1397,-620.593 1654,-620.593 "/>
<text text-anchor="middle" x="1525.5" y="-603.793" font-family="Times,serif" font-size="16.00">feat_directory [O]</text>
<polyline fill="none" stroke="black" points="1397,-594.593 1654,-594.593 "/>
<text text-anchor="middle" x="1525.5" y="-577.793" font-family="Times,serif" font-size="16.00">filtered_images</text>
<polyline fill="none" stroke="black" points="1397,-568.593 1654,-568.593 "/>
<text text-anchor="middle" x="1525.5" y="-551.793" font-family="Times,serif" font-size="16.00">example_image [O]</text>
<polyline fill="none" stroke="black" points="1397,-542.593 1654,-542.593 "/>
<text text-anchor="middle" x="1525.5" y="-525.793" font-family="Times,serif" font-size="16.00">mask_image</text>
<polyline fill="none" stroke="black" points="1397,-516.593 1654,-516.593 "/>
<text text-anchor="middle" x="1525.5" y="-499.793" font-family="Times,serif" font-size="16.00">mean_image</text>
<polyline fill="none" stroke="black" points="1397,-490.593 1654,-490.593 "/>
<text text-anchor="middle" x="1525.5" y="-473.793" font-family="Times,serif" font-size="16.00">design_matrix</text>
<polyline fill="none" stroke="black" points="1397,-464.593 1654,-464.593 "/>
<text text-anchor="middle" x="1525.5" y="-447.793" font-family="Times,serif" font-size="16.00">design_contrast</text>
<polyline fill="none" stroke="black" points="1397,-438.593 1654,-438.593 "/>
<text text-anchor="middle" x="1525.5" y="-421.793" font-family="Times,serif" font-size="16.00">example_func2highres</text>
<polyline fill="none" stroke="black" points="1397,-412.593 1654,-412.593 "/>
<text text-anchor="middle" x="1525.5" y="-395.793" font-family="Times,serif" font-size="16.00">example_func2standard</text>
<polyline fill="none" stroke="black" points="1397,-386.593 1654,-386.593 "/>
<text text-anchor="middle" x="1525.5" y="-369.793" font-family="Times,serif" font-size="16.00">example_func2standard_image</text>
<polyline fill="none" stroke="black" points="1397,-360.593 1654,-360.593 "/>
<text text-anchor="middle" x="1525.5" y="-343.793" font-family="Times,serif" font-size="16.00">example_func2standard_warp_image</text>
<polyline fill="none" stroke="black" points="1397,-334.593 1654,-334.593 "/>
<text text-anchor="middle" x="1525.5" y="-317.793" font-family="Times,serif" font-size="16.00">highres2example_func [O]</text>
<polyline fill="none" stroke="black" points="1397,-308.593 1654,-308.593 "/>
<text text-anchor="middle" x="1525.5" y="-291.793" font-family="Times,serif" font-size="16.00">highres2standard</text>
<polyline fill="none" stroke="black" points="1397,-282.593 1654,-282.593 "/>
<text text-anchor="middle" x="1525.5" y="-265.793" font-family="Times,serif" font-size="16.00">highres2standard_image</text>
<polyline fill="none" stroke="black" points="1397,-256.593 1654,-256.593 "/>
<text text-anchor="middle" x="1525.5" y="-239.793" font-family="Times,serif" font-size="16.00">highres2standard_linear_image</text>
<polyline fill="none" stroke="black" points="1397,-230.593 1654,-230.593 "/>
<text text-anchor="middle" x="1525.5" y="-213.793" font-family="Times,serif" font-size="16.00">highres2standard_warp_image</text>
<polyline fill="none" stroke="black" points="1397,-204.593 1654,-204.593 "/>
<text text-anchor="middle" x="1525.5" y="-187.793" font-family="Times,serif" font-size="16.00">standard2example_func</text>
<polyline fill="none" stroke="black" points="1397,-178.593 1654,-178.593 "/>
<text text-anchor="middle" x="1525.5" y="-161.793" font-family="Times,serif" font-size="16.00">standard2highres</text>
</g>
<!-- fmri_tr&#45;&gt;feat_preprocessing -->
<g id="edge30" class="edge"><title>fmri_tr:o_output&#45;&gt;feat_preprocessing:i_TR</title>
<path fill="none" stroke="black" d="M1131,-237.593C1217.69,-237.593 1168.09,-386.576 1243.6,-398.798"/>
<polygon fill="black" stroke="black" points="1243.76,-402.32 1254,-399.593 1244.3,-395.34 1243.76,-402.32"/>
</g>
<!-- bandpass_sigma -->
<g id="node10" class="node"><title>bandpass_sigma</title>
<polygon fill="#e5e5e5" stroke="black" points="1776.5,-218.593 1776.5,-296.593 1967.5,-296.593 1967.5,-218.593 1776.5,-218.593"/>
<text text-anchor="middle" x="1872" y="-279.793" font-family="Times,serif" font-size="16.00">bandpass_sigma</text>
<polyline fill="none" stroke="black" points="1776.5,-270.593 1967.5,-270.593 "/>
<text text-anchor="middle" x="1834.5" y="-253.793" font-family="Times,serif" font-size="16.00">[P] left_hand</text>
<polyline fill="none" stroke="black" points="1776.5,-244.593 1892.5,-244.593 "/>
<text text-anchor="middle" x="1834.5" y="-227.793" font-family="Times,serif" font-size="16.00">[M] right_hand</text>
<polyline fill="none" stroke="black" points="1892.5,-218.593 1892.5,-270.593 "/>
<text text-anchor="middle" x="1930" y="-240.793" font-family="Times,serif" font-size="16.00">result [P]</text>
</g>
<!-- fmri_tr&#45;&gt;bandpass_sigma -->
<g id="edge14" class="edge"><title>fmri_tr:o_output&#45;&gt;bandpass_sigma:i_right_hand</title>
<path fill="none" stroke="black" d="M1131,-237.593C1222.82,-237.593 1171.99,-112.896 1254,-71.5928 1412.78,8.37325 1513.22,36.9721 1654,-71.5928 1703.85,-110.039 1645.65,-163.914 1690,-208.593 1715.1,-233.872 1732.5,-232.188 1764.93,-231.681"/>
<polygon fill="black" stroke="black" points="1765.03,-235.181 1775,-231.593 1764.97,-228.181 1765.03,-235.181"/>
</g>
<!-- master_setup -->
<g id="node3" class="node"><title>master_setup</title>
<polygon fill="#caff70" stroke="black" points="1024,-584.593 1024,-636.593 1128,-636.593 1128,-584.593 1024,-584.593"/>
<text text-anchor="middle" x="1076" y="-619.793" font-family="Times,serif" font-size="16.00">master_setup</text>
<polyline fill="none" stroke="black" points="1024,-610.593 1128,-610.593 "/>
<text text-anchor="middle" x="1034" y="-593.793" font-family="Times,serif" font-size="16.00"> </text>
<polyline fill="none" stroke="black" points="1044,-584.593 1044,-610.593 "/>
<text text-anchor="middle" x="1086" y="-593.793" font-family="Times,serif" font-size="16.00">output [O]</text>
</g>
<!-- master_setup&#45;&gt;feat_preprocessing -->
<g id="edge35" class="edge"><title>master_setup:o_output&#45;&gt;feat_preprocessing:i_setup_file</title>
<path fill="none" stroke="black" d="M1129,-597.593C1180.97,-597.593 1196.48,-597.593 1243.75,-597.593"/>
<polygon fill="black" stroke="black" points="1244,-601.093 1254,-597.593 1244,-594.093 1244,-601.093"/>
</g>
<!-- bandpass_halfmax -->
<g id="node4" class="node"><title>bandpass_halfmax</title>
<polygon fill="#ffbbff" stroke="black" points="1386,-81.5928 1386,-133.593 1522,-133.593 1522,-81.5928 1386,-81.5928"/>
<text text-anchor="middle" x="1454" y="-116.793" font-family="Times,serif" font-size="16.00">bandpass_halfmax</text>
<polyline fill="none" stroke="black" points="1386,-107.593 1522,-107.593 "/>
<text text-anchor="middle" x="1454" y="-90.7928" font-family="Times,serif" font-size="16.00">[[&#39;50&#39;], [&#39;&#45;1&#39;]] [P]</text>
</g>
<!-- bandpass_halfmax&#45;&gt;bandpass_sigma -->
<g id="edge15" class="edge"><title>bandpass_halfmax:o_output&#45;&gt;bandpass_sigma:i_left_hand</title>
<path fill="none" stroke="black" d="M1522.23,-113.198C1571.62,-118.413 1633.2,-127.669 1654,-142.593 1681.15,-162.071 1666.65,-184.689 1690,-208.593 1717.97,-237.229 1729.47,-254.582 1764.9,-257.236"/>
<polygon fill="black" stroke="black" points="1764.88,-260.737 1775,-257.593 1765.13,-253.742 1764.88,-260.737"/>
</g>
<!-- reorient2std -->
<g id="node6" class="node"><title>reorient2std</title>
<polygon fill="#e5e5e5" stroke="black" points="958.5,-486.593 958.5,-538.593 1193.5,-538.593 1193.5,-486.593 958.5,-486.593"/>
<text text-anchor="middle" x="1076" y="-521.793" font-family="Times,serif" font-size="16.00">reorient2std</text>
<polyline fill="none" stroke="black" points="958.5,-512.593 1193.5,-512.593 "/>
<text text-anchor="middle" x="999" y="-495.793" font-family="Times,serif" font-size="16.00">[N] image</text>
<polyline fill="none" stroke="black" points="1039.5,-486.593 1039.5,-512.593 "/>
<text text-anchor="middle" x="1116.5" y="-495.793" font-family="Times,serif" font-size="16.00">reoriented_image [N]</text>
</g>
<!-- dicom_to_nifti&#45;&gt;reorient2std -->
<g id="edge38" class="edge"><title>dicom_to_nifti:o_image&#45;&gt;reorient2std:i_image</title>
<path fill="none" stroke="black" d="M823,-499.593C879.066,-499.593 895.546,-499.593 946.973,-499.593"/>
<polygon fill="black" stroke="black" points="947,-503.093 957,-499.593 947,-496.093 947,-503.093"/>
</g>
<!-- reorient2std&#45;&gt;feat_preprocessing -->
<g id="edge37" class="edge"><title>reorient2std:o_reoriented_image&#45;&gt;feat_preprocessing:i_fmri_images</title>
<path fill="none" stroke="black" d="M1195,-499.593C1217.53,-499.593 1225.55,-499.593 1243.99,-499.593"/>
<polygon fill="black" stroke="black" points="1244,-503.093 1254,-499.593 1244,-496.093 1244,-503.093"/>
</g>
<!-- ica_aroma_denoising -->
<g id="node8" class="node"><title>ica_aroma_denoising</title>
<polygon fill="#e5e5e5" stroke="black" points="1699.5,-386.593 1699.5,-672.593 2044.5,-672.593 2044.5,-386.593 1699.5,-386.593"/>
<text text-anchor="middle" x="1872" y="-655.793" font-family="Times,serif" font-size="16.00">ica_aroma_denoising</text>
<polyline fill="none" stroke="black" points="1699.5,-646.593 2044.5,-646.593 "/>
<text text-anchor="middle" x="1765" y="-629.793" font-family="Times,serif" font-size="16.00">images</text>
<polyline fill="none" stroke="black" points="1699.5,-620.593 1830.5,-620.593 "/>
<text text-anchor="middle" x="1765" y="-603.793" font-family="Times,serif" font-size="16.00">aff_mat</text>
<polyline fill="none" stroke="black" points="1699.5,-594.593 1830.5,-594.593 "/>
<text text-anchor="middle" x="1765" y="-577.793" font-family="Times,serif" font-size="16.00">warpfield</text>
<polyline fill="none" stroke="black" points="1699.5,-568.593 1830.5,-568.593 "/>
<text text-anchor="middle" x="1765" y="-551.793" font-family="Times,serif" font-size="16.00">motion_corr</text>
<polyline fill="none" stroke="black" points="1699.5,-542.593 1830.5,-542.593 "/>
<text text-anchor="middle" x="1765" y="-525.793" font-family="Times,serif" font-size="16.00">mask_image</text>
<polyline fill="none" stroke="black" points="1699.5,-516.593 1830.5,-516.593 "/>
<text text-anchor="middle" x="1765" y="-499.793" font-family="Times,serif" font-size="16.00">[O] feat_directory</text>
<polyline fill="none" stroke="black" points="1699.5,-490.593 1830.5,-490.593 "/>
<text text-anchor="middle" x="1765" y="-473.793" font-family="Times,serif" font-size="16.00">TR</text>
<polyline fill="none" stroke="black" points="1699.5,-464.593 1830.5,-464.593 "/>
<text text-anchor="middle" x="1765" y="-447.793" font-family="Times,serif" font-size="16.00">ICA_dim</text>
<polyline fill="none" stroke="black" points="1699.5,-438.593 1830.5,-438.593 "/>
<text text-anchor="middle" x="1765" y="-421.793" font-family="Times,serif" font-size="16.00">denoising</text>
<polyline fill="none" stroke="black" points="1699.5,-412.593 1830.5,-412.593 "/>
<text text-anchor="middle" x="1765" y="-395.793" font-family="Times,serif" font-size="16.00">ICA_directory</text>
<polyline fill="none" stroke="black" points="1830.5,-386.593 1830.5,-646.593 "/>
<text text-anchor="middle" x="1937.5" y="-626.793" font-family="Times,serif" font-size="16.00">aroma_directory</text>
<polyline fill="none" stroke="black" points="1830.5,-614.593 2044.5,-614.593 "/>
<text text-anchor="middle" x="1937.5" y="-594.293" font-family="Times,serif" font-size="16.00">denoised_nonaggr_images [O]</text>
<polyline fill="none" stroke="black" points="1830.5,-581.593 2044.5,-581.593 "/>
<text text-anchor="middle" x="1937.5" y="-561.793" font-family="Times,serif" font-size="16.00">class_overview</text>
<polyline fill="none" stroke="black" points="1830.5,-549.593 2044.5,-549.593 "/>
<text text-anchor="middle" x="1937.5" y="-529.293" font-family="Times,serif" font-size="16.00">class_noise</text>
<polyline fill="none" stroke="black" points="1830.5,-516.593 2044.5,-516.593 "/>
<text text-anchor="middle" x="1937.5" y="-496.793" font-family="Times,serif" font-size="16.00">feature_scores</text>
<polyline fill="none" stroke="black" points="1830.5,-484.593 2044.5,-484.593 "/>
<text text-anchor="middle" x="1937.5" y="-464.293" font-family="Times,serif" font-size="16.00">ICA_maps_MNI</text>
<polyline fill="none" stroke="black" points="1830.5,-451.593 2044.5,-451.593 "/>
<text text-anchor="middle" x="1937.5" y="-431.793" font-family="Times,serif" font-size="16.00">ICA_mask</text>
<polyline fill="none" stroke="black" points="1830.5,-419.593 2044.5,-419.593 "/>
<text text-anchor="middle" x="1937.5" y="-399.293" font-family="Times,serif" font-size="16.00">ICA_results</text>
</g>
<!-- feat_preprocessing&#45;&gt;ica_aroma_denoising -->
<g id="edge29" class="edge"><title>feat_preprocessing:o_feat_directory&#45;&gt;ica_aroma_denoising:i_feat_directory</title>
<path fill="none" stroke="black" d="M1654,-607.593C1700.27,-607.593 1655.97,-519.208 1688.09,-505.398"/>
<polygon fill="black" stroke="black" points="1688.79,-508.828 1698,-503.593 1687.53,-501.941 1688.79,-508.828"/>
</g>
<!-- apply_warp_ica -->
<g id="node15" class="node"><title>apply_warp_ica</title>
<polygon fill="#e5e5e5" stroke="black" points="1726,-1592.59 1726,-1956.59 2018,-1956.59 2018,-1592.59 1726,-1592.59"/>
<text text-anchor="middle" x="1872" y="-1939.79" font-family="Times,serif" font-size="16.00">apply_warp_ica</text>
<polyline fill="none" stroke="black" points="1726,-1930.59 2018,-1930.59 "/>
<text text-anchor="middle" x="1804" y="-1913.79" font-family="Times,serif" font-size="16.00">[V] source_image</text>
<polyline fill="none" stroke="black" points="1726,-1904.59 1882,-1904.59 "/>
<text text-anchor="middle" x="1804" y="-1887.79" font-family="Times,serif" font-size="16.00">[O] reference_image</text>
<polyline fill="none" stroke="black" points="1726,-1878.59 1882,-1878.59 "/>
<text text-anchor="middle" x="1804" y="-1861.79" font-family="Times,serif" font-size="16.00">[Q] warp_coef_image</text>
<polyline fill="none" stroke="black" points="1726,-1852.59 1882,-1852.59 "/>
<text text-anchor="middle" x="1804" y="-1835.79" font-family="Times,serif" font-size="16.00">abs_flag</text>
<polyline fill="none" stroke="black" points="1726,-1826.59 1882,-1826.59 "/>
<text text-anchor="middle" x="1804" y="-1809.79" font-family="Times,serif" font-size="16.00">rel_flag</text>
<polyline fill="none" stroke="black" points="1726,-1800.59 1882,-1800.59 "/>
<text text-anchor="middle" x="1804" y="-1783.79" font-family="Times,serif" font-size="16.00">output_datatype</text>
<polyline fill="none" stroke="black" points="1726,-1774.59 1882,-1774.59 "/>
<text text-anchor="middle" x="1804" y="-1757.79" font-family="Times,serif" font-size="16.00">super_flag</text>
<polyline fill="none" stroke="black" points="1726,-1748.59 1882,-1748.59 "/>
<text text-anchor="middle" x="1804" y="-1731.79" font-family="Times,serif" font-size="16.00">superlevel_flag</text>
<polyline fill="none" stroke="black" points="1726,-1722.59 1882,-1722.59 "/>
<text text-anchor="middle" x="1804" y="-1705.79" font-family="Times,serif" font-size="16.00">pre_mat</text>
<polyline fill="none" stroke="black" points="1726,-1696.59 1882,-1696.59 "/>
<text text-anchor="middle" x="1804" y="-1679.79" font-family="Times,serif" font-size="16.00">[O] post_mat</text>
<polyline fill="none" stroke="black" points="1726,-1670.59 1882,-1670.59 "/>
<text text-anchor="middle" x="1804" y="-1653.79" font-family="Times,serif" font-size="16.00">mask_image</text>
<polyline fill="none" stroke="black" points="1726,-1644.59 1882,-1644.59 "/>
<text text-anchor="middle" x="1804" y="-1627.79" font-family="Times,serif" font-size="16.00">interpolation</text>
<polyline fill="none" stroke="black" points="1726,-1618.59 1882,-1618.59 "/>
<text text-anchor="middle" x="1804" y="-1601.79" font-family="Times,serif" font-size="16.00">paddingsize</text>
<polyline fill="none" stroke="black" points="1882,-1592.59 1882,-1930.59 "/>
<text text-anchor="middle" x="1950" y="-1757.79" font-family="Times,serif" font-size="16.00">warped_image [V]</text>
</g>
<!-- feat_preprocessing&#45;&gt;apply_warp_ica -->
<g id="edge2" class="edge"><title>feat_preprocessing:o_example_image&#45;&gt;apply_warp_ica:i_reference_image</title>
<path fill="none" stroke="black" d="M1654,-555.593C1682.46,-555.593 1687.91,-1551.21 1690,-1579.59 1699.98,-1715.22 1591.21,-1882.84 1714.86,-1891.26"/>
<polygon fill="black" stroke="black" points="1714.89,-1894.76 1725,-1891.59 1715.12,-1887.77 1714.89,-1894.76"/>
</g>
<!-- feat_preprocessing&#45;&gt;apply_warp_ica -->
<g id="edge24" class="edge"><title>feat_preprocessing:o_highres2example_func&#45;&gt;apply_warp_ica:i_post_mat</title>
<path fill="none" stroke="black" d="M1654,-321.593C1688.96,-321.593 1683.86,-1545.18 1690,-1579.59 1697.9,-1623.85 1679.53,-1674.89 1714.82,-1682.6"/>
<polygon fill="black" stroke="black" points="1714.71,-1686.1 1725,-1683.59 1715.39,-1679.14 1714.71,-1686.1"/>
</g>
<!-- apply_warp_pves -->
<g id="node21" class="node"><title>apply_warp_pves</title>
<polygon fill="#e5e5e5" stroke="black" points="1728.5,-721.593 1728.5,-1085.59 2015.5,-1085.59 2015.5,-721.593 1728.5,-721.593"/>
<text text-anchor="middle" x="1872" y="-1068.79" font-family="Times,serif" font-size="16.00">apply_warp_pves</text>
<polyline fill="none" stroke="black" points="1728.5,-1059.59 2015.5,-1059.59 "/>
<text text-anchor="middle" x="1802" y="-1042.79" font-family="Times,serif" font-size="16.00">[W] source_image</text>
<polyline fill="none" stroke="black" points="1728.5,-1033.59 1875.5,-1033.59 "/>
<text text-anchor="middle" x="1802" y="-1016.79" font-family="Times,serif" font-size="16.00">[O] reference_image</text>
<polyline fill="none" stroke="black" points="1728.5,-1007.59 1875.5,-1007.59 "/>
<text text-anchor="middle" x="1802" y="-990.793" font-family="Times,serif" font-size="16.00">warp_coef_image</text>
<polyline fill="none" stroke="black" points="1728.5,-981.593 1875.5,-981.593 "/>
<text text-anchor="middle" x="1802" y="-964.793" font-family="Times,serif" font-size="16.00">abs_flag</text>
<polyline fill="none" stroke="black" points="1728.5,-955.593 1875.5,-955.593 "/>
<text text-anchor="middle" x="1802" y="-938.793" font-family="Times,serif" font-size="16.00">rel_flag</text>
<polyline fill="none" stroke="black" points="1728.5,-929.593 1875.5,-929.593 "/>
<text text-anchor="middle" x="1802" y="-912.793" font-family="Times,serif" font-size="16.00">output_datatype</text>
<polyline fill="none" stroke="black" points="1728.5,-903.593 1875.5,-903.593 "/>
<text text-anchor="middle" x="1802" y="-886.793" font-family="Times,serif" font-size="16.00">super_flag</text>
<polyline fill="none" stroke="black" points="1728.5,-877.593 1875.5,-877.593 "/>
<text text-anchor="middle" x="1802" y="-860.793" font-family="Times,serif" font-size="16.00">superlevel_flag</text>
<polyline fill="none" stroke="black" points="1728.5,-851.593 1875.5,-851.593 "/>
<text text-anchor="middle" x="1802" y="-834.793" font-family="Times,serif" font-size="16.00">[O] pre_mat</text>
<polyline fill="none" stroke="black" points="1728.5,-825.593 1875.5,-825.593 "/>
<text text-anchor="middle" x="1802" y="-808.793" font-family="Times,serif" font-size="16.00">post_mat</text>
<polyline fill="none" stroke="black" points="1728.5,-799.593 1875.5,-799.593 "/>
<text text-anchor="middle" x="1802" y="-782.793" font-family="Times,serif" font-size="16.00">mask_image</text>
<polyline fill="none" stroke="black" points="1728.5,-773.593 1875.5,-773.593 "/>
<text text-anchor="middle" x="1802" y="-756.793" font-family="Times,serif" font-size="16.00">interpolation</text>
<polyline fill="none" stroke="black" points="1728.5,-747.593 1875.5,-747.593 "/>
<text text-anchor="middle" x="1802" y="-730.793" font-family="Times,serif" font-size="16.00">paddingsize</text>
<polyline fill="none" stroke="black" points="1875.5,-721.593 1875.5,-1059.59 "/>
<text text-anchor="middle" x="1945.5" y="-886.793" font-family="Times,serif" font-size="16.00">warped_image [W]</text>
</g>
<!-- feat_preprocessing&#45;&gt;apply_warp_pves -->
<g id="edge7" class="edge"><title>feat_preprocessing:o_example_image&#45;&gt;apply_warp_pves:i_reference_image</title>
<path fill="none" stroke="black" d="M1654,-555.593C1703.03,-555.593 1678.32,-964.284 1718.14,-1015.37"/>
<polygon fill="black" stroke="black" points="1716.61,-1018.53 1727,-1020.59 1720.16,-1012.5 1716.61,-1018.53"/>
</g>
<!-- feat_preprocessing&#45;&gt;apply_warp_pves -->
<g id="edge8" class="edge"><title>feat_preprocessing:o_highres2example_func&#45;&gt;apply_warp_pves:i_pre_mat</title>
<path fill="none" stroke="black" d="M1654,-321.593C1697.19,-321.593 1682.06,-666.144 1690,-708.593 1700.36,-763.949 1671.02,-829.77 1716.81,-837.782"/>
<polygon fill="black" stroke="black" points="1716.75,-841.288 1727,-838.593 1717.31,-834.31 1716.75,-841.288"/>
</g>
<!-- maths_bandpass_smooth -->
<g id="node9" class="node"><title>maths_bandpass_smooth</title>
<polygon fill="#e5e5e5" stroke="black" points="2090,-61.5928 2090,-451.593 2382,-451.593 2382,-61.5928 2090,-61.5928"/>
<text text-anchor="middle" x="2236" y="-434.793" font-family="Times,serif" font-size="16.00">maths_bandpass_smooth</text>
<polyline fill="none" stroke="black" points="2090,-425.593 2382,-425.593 "/>
<text text-anchor="middle" x="2170.5" y="-408.793" font-family="Times,serif" font-size="16.00">input_datatype</text>
<polyline fill="none" stroke="black" points="2090,-399.593 2251,-399.593 "/>
<text text-anchor="middle" x="2170.5" y="-382.793" font-family="Times,serif" font-size="16.00">[O] image1</text>
<polyline fill="none" stroke="black" points="2090,-373.593 2251,-373.593 "/>
<text text-anchor="middle" x="2170.5" y="-356.793" font-family="Times,serif" font-size="16.00">[R] operator1</text>
<polyline fill="none" stroke="black" points="2090,-347.593 2251,-347.593 "/>
<text text-anchor="middle" x="2170.5" y="-330.793" font-family="Times,serif" font-size="16.00">operator1_string</text>
<polyline fill="none" stroke="black" points="2090,-321.593 2251,-321.593 "/>
<text text-anchor="middle" x="2170.5" y="-304.793" font-family="Times,serif" font-size="16.00">[S] operator1_number</text>
<polyline fill="none" stroke="black" points="2090,-295.593 2251,-295.593 "/>
<text text-anchor="middle" x="2170.5" y="-278.793" font-family="Times,serif" font-size="16.00">image2</text>
<polyline fill="none" stroke="black" points="2090,-269.593 2251,-269.593 "/>
<text text-anchor="middle" x="2170.5" y="-252.793" font-family="Times,serif" font-size="16.00">[T] operator2</text>
<polyline fill="none" stroke="black" points="2090,-243.593 2251,-243.593 "/>
<text text-anchor="middle" x="2170.5" y="-226.793" font-family="Times,serif" font-size="16.00">operator2_string</text>
<polyline fill="none" stroke="black" points="2090,-217.593 2251,-217.593 "/>
<text text-anchor="middle" x="2170.5" y="-200.793" font-family="Times,serif" font-size="16.00">[U] operator2_number</text>
<polyline fill="none" stroke="black" points="2090,-191.593 2251,-191.593 "/>
<text text-anchor="middle" x="2170.5" y="-174.793" font-family="Times,serif" font-size="16.00">image3</text>
<polyline fill="none" stroke="black" points="2090,-165.593 2251,-165.593 "/>
<text text-anchor="middle" x="2170.5" y="-148.793" font-family="Times,serif" font-size="16.00">operator3</text>
<polyline fill="none" stroke="black" points="2090,-139.593 2251,-139.593 "/>
<text text-anchor="middle" x="2170.5" y="-122.793" font-family="Times,serif" font-size="16.00">operator3_string</text>
<polyline fill="none" stroke="black" points="2090,-113.593 2251,-113.593 "/>
<text text-anchor="middle" x="2170.5" y="-96.7928" font-family="Times,serif" font-size="16.00">operator3_number</text>
<polyline fill="none" stroke="black" points="2090,-87.5928 2251,-87.5928 "/>
<text text-anchor="middle" x="2170.5" y="-70.7928" font-family="Times,serif" font-size="16.00">output_datatype</text>
<polyline fill="none" stroke="black" points="2251,-61.5928 2251,-425.593 "/>
<text text-anchor="middle" x="2316.5" y="-239.793" font-family="Times,serif" font-size="16.00">output_image [O]</text>
</g>
<!-- ica_aroma_denoising&#45;&gt;maths_bandpass_smooth -->
<g id="edge13" class="edge"><title>ica_aroma_denoising:o_denoised_nonaggr_images&#45;&gt;maths_bandpass_smooth:i_image1</title>
<path fill="none" stroke="black" d="M2046,-598.593C2138.47,-598.593 2004.99,-402.832 2079.81,-387.538"/>
<polygon fill="black" stroke="black" points="2080.37,-391.002 2090,-386.593 2079.72,-384.032 2080.37,-391.002"/>
</g>
<!-- dual_regression -->
<g id="node29" class="node"><title>dual_regression</title>
<polygon fill="#e5e5e5" stroke="black" points="2418,-1309.59 2418,-1491.59 2715,-1491.59 2715,-1309.59 2418,-1309.59"/>
<text text-anchor="middle" x="2566.5" y="-1474.79" font-family="Times,serif" font-size="16.00">dual_regression</text>
<polyline fill="none" stroke="black" points="2418,-1465.59 2715,-1465.59 "/>
<text text-anchor="middle" x="2492" y="-1448.79" font-family="Times,serif" font-size="16.00">[C] group_ica_maps</text>
<polyline fill="none" stroke="black" points="2418,-1439.59 2566,-1439.59 "/>
<text text-anchor="middle" x="2492" y="-1422.79" font-family="Times,serif" font-size="16.00">design_norm</text>
<polyline fill="none" stroke="black" points="2418,-1413.59 2566,-1413.59 "/>
<text text-anchor="middle" x="2492" y="-1396.79" font-family="Times,serif" font-size="16.00">design_matrix</text>
<polyline fill="none" stroke="black" points="2418,-1387.59 2566,-1387.59 "/>
<text text-anchor="middle" x="2492" y="-1370.79" font-family="Times,serif" font-size="16.00">design_contrast</text>
<polyline fill="none" stroke="black" points="2418,-1361.59 2566,-1361.59 "/>
<text text-anchor="middle" x="2492" y="-1344.79" font-family="Times,serif" font-size="16.00">n_perm</text>
<polyline fill="none" stroke="black" points="2418,-1335.59 2566,-1335.59 "/>
<text text-anchor="middle" x="2492" y="-1318.79" font-family="Times,serif" font-size="16.00">[O] fmri_images</text>
<polyline fill="none" stroke="black" points="2566,-1309.59 2566,-1465.59 "/>
<text text-anchor="middle" x="2640.5" y="-1442.29" font-family="Times,serif" font-size="16.00">output_directory [C]</text>
<polyline fill="none" stroke="black" points="2566,-1426.59 2715,-1426.59 "/>
<text text-anchor="middle" x="2640.5" y="-1403.29" font-family="Times,serif" font-size="16.00">dr_stage1</text>
<polyline fill="none" stroke="black" points="2566,-1387.59 2715,-1387.59 "/>
<text text-anchor="middle" x="2640.5" y="-1364.29" font-family="Times,serif" font-size="16.00">dr_stage2</text>
<polyline fill="none" stroke="black" points="2566,-1348.59 2715,-1348.59 "/>
<text text-anchor="middle" x="2640.5" y="-1325.29" font-family="Times,serif" font-size="16.00">dr_stage2_Z</text>
</g>
<!-- maths_bandpass_smooth&#45;&gt;dual_regression -->
<g id="edge28" class="edge"><title>maths_bandpass_smooth:o_output_image&#45;&gt;dual_regression:i_fmri_images</title>
<path fill="none" stroke="black" d="M2383,-243.593C2499.44,-243.593 2309.78,-1260.3 2408.28,-1319.87"/>
<polygon fill="black" stroke="black" points="2407.43,-1323.27 2418,-1322.59 2409.32,-1316.52 2407.43,-1323.27"/>
</g>
<!-- bandpass_sigma&#45;&gt;maths_bandpass_smooth -->
<g id="edge19" class="edge"><title>bandpass_sigma:o_result&#45;&gt;maths_bandpass_smooth:i_operator1_number</title>
<path fill="none" stroke="blue" stroke-width="3" d="M1969,-244.593C2026.27,-244.593 2029.03,-301.313 2079.91,-307.959"/>
<polygon fill="blue" stroke="blue" stroke-width="3" points="2079.8,-311.459 2090,-308.593 2080.24,-304.473 2079.8,-311.459"/>
</g>
<!-- const_maths_bandpass_smooth_operator1_0 -->
<g id="node11" class="node"><title>const_maths_bandpass_smooth_operator1_0</title>
<polygon fill="#ffbbff" stroke="black" points="1719,-315.593 1719,-367.593 2025,-367.593 2025,-315.593 1719,-315.593"/>
<text text-anchor="middle" x="1872" y="-350.793" font-family="Times,serif" font-size="16.00">const_maths_bandpass_smooth_operator1_0</text>
<polyline fill="none" stroke="black" points="1719,-341.593 2025,-341.593 "/>
<text text-anchor="middle" x="1872" y="-324.793" font-family="Times,serif" font-size="16.00">[[&#39;&#45;bptf&#39;]] [R]</text>
</g>
<!-- const_maths_bandpass_smooth_operator1_0&#45;&gt;maths_bandpass_smooth -->
<g id="edge12" class="edge"><title>const_maths_bandpass_smooth_operator1_0:o_output&#45;&gt;maths_bandpass_smooth:i_operator1</title>
<path fill="none" stroke="black" d="M2025.2,-358.32C2043.36,-359.48 2061.77,-360.289 2079.59,-360.523"/>
<polygon fill="black" stroke="black" points="2079.98,-364.026 2090,-360.593 2080.02,-357.026 2079.98,-364.026"/>
</g>
<!-- const_maths_bandpass_smooth_operator2_0 -->
<g id="node12" class="node"><title>const_maths_bandpass_smooth_operator2_0</title>
<polygon fill="#ffbbff" stroke="black" points="1719,-147.593 1719,-199.593 2025,-199.593 2025,-147.593 1719,-147.593"/>
<text text-anchor="middle" x="1872" y="-182.793" font-family="Times,serif" font-size="16.00">const_maths_bandpass_smooth_operator2_0</text>
<polyline fill="none" stroke="black" points="1719,-173.593 2025,-173.593 "/>
<text text-anchor="middle" x="1872" y="-156.793" font-family="Times,serif" font-size="16.00">[[&#39;&#45;s&#39;]] [T]</text>
</g>
<!-- const_maths_bandpass_smooth_operator2_0&#45;&gt;maths_bandpass_smooth -->
<g id="edge18" class="edge"><title>const_maths_bandpass_smooth_operator2_0:o_output&#45;&gt;maths_bandpass_smooth:i_operator2</title>
<path fill="none" stroke="black" d="M2025.1,-196.662C2037.56,-200.215 2047.75,-204.189 2054,-208.593 2072.39,-221.558 2066.39,-246.816 2080.09,-254.393"/>
<polygon fill="black" stroke="black" points="2079.48,-257.843 2090,-256.593 2081,-251.01 2079.48,-257.843"/>
</g>
<!-- const_maths_bandpass_smooth_operator2_number_0 -->
<g id="node13" class="node"><title>const_maths_bandpass_smooth_operator2_number_0</title>
<polygon fill="#ffbbff" stroke="black" points="1690,-76.5928 1690,-128.593 2054,-128.593 2054,-76.5928 1690,-76.5928"/>
<text text-anchor="middle" x="1872" y="-111.793" font-family="Times,serif" font-size="16.00">const_maths_bandpass_smooth_operator2_number_0</text>
<polyline fill="none" stroke="black" points="1690,-102.593 2054,-102.593 "/>
<text text-anchor="middle" x="1872" y="-85.7928" font-family="Times,serif" font-size="16.00">[[&#39;5&#39;]] [U]</text>
</g>
<!-- const_maths_bandpass_smooth_operator2_number_0&#45;&gt;maths_bandpass_smooth -->
<g id="edge17" class="edge"><title>const_maths_bandpass_smooth_operator2_number_0:o_output&#45;&gt;maths_bandpass_smooth:i_operator2_number</title>
<path fill="none" stroke="black" d="M2054.35,-128.854C2080.62,-148.745 2058.84,-193.282 2080.07,-202.787"/>
<polygon fill="black" stroke="black" points="2079.54,-206.247 2090,-204.593 2080.79,-199.36 2079.54,-206.247"/>
</g>
<!-- ica_templates -->
<g id="node14" class="node"><title>ica_templates</title>
<polygon fill="#caff70" stroke="black" points="1402,-1904.59 1402,-1956.59 1506,-1956.59 1506,-1904.59 1402,-1904.59"/>
<text text-anchor="middle" x="1454" y="-1939.79" font-family="Times,serif" font-size="16.00">ica_templates</text>
<polyline fill="none" stroke="black" points="1402,-1930.59 1506,-1930.59 "/>
<text text-anchor="middle" x="1412" y="-1913.79" font-family="Times,serif" font-size="16.00"> </text>
<polyline fill="none" stroke="black" points="1422,-1904.59 1422,-1930.59 "/>
<text text-anchor="middle" x="1464" y="-1913.79" font-family="Times,serif" font-size="16.00">output [V]</text>
</g>
<!-- ica_templates&#45;&gt;apply_warp_ica -->
<g id="edge1" class="edge"><title>ica_templates:o_output&#45;&gt;apply_warp_ica:i_source_image</title>
<path fill="none" stroke="black" d="M1507,-1917.59C1600.39,-1917.59 1626.27,-1917.59 1714.78,-1917.59"/>
<polygon fill="black" stroke="black" points="1715,-1921.09 1725,-1917.59 1715,-1914.09 1715,-1921.09"/>
</g>
<!-- merge_maps -->
<g id="node28" class="node"><title>merge_maps</title>
<polygon fill="#e5e5e5" stroke="black" points="2148.5,-1309.59 2148.5,-1543.59 2323.5,-1543.59 2323.5,-1309.59 2148.5,-1309.59"/>
<text text-anchor="middle" x="2236" y="-1526.79" font-family="Times,serif" font-size="16.00">merge_maps</text>
<polyline fill="none" stroke="black" points="2148.5,-1517.59 2323.5,-1517.59 "/>
<text text-anchor="middle" x="2196" y="-1500.79" font-family="Times,serif" font-size="16.00">[C] t_flag</text>
<polyline fill="none" stroke="black" points="2148.5,-1491.59 2243.5,-1491.59 "/>
<text text-anchor="middle" x="2196" y="-1474.79" font-family="Times,serif" font-size="16.00">x_flag</text>
<polyline fill="none" stroke="black" points="2148.5,-1465.59 2243.5,-1465.59 "/>
<text text-anchor="middle" x="2196" y="-1448.79" font-family="Times,serif" font-size="16.00">y_flag</text>
<polyline fill="none" stroke="black" points="2148.5,-1439.59 2243.5,-1439.59 "/>
<text text-anchor="middle" x="2196" y="-1422.79" font-family="Times,serif" font-size="16.00">z_flag</text>
<polyline fill="none" stroke="black" points="2148.5,-1413.59 2243.5,-1413.59 "/>
<text text-anchor="middle" x="2196" y="-1396.79" font-family="Times,serif" font-size="16.00">a_flag</text>
<polyline fill="none" stroke="black" points="2148.5,-1387.59 2243.5,-1387.59 "/>
<text text-anchor="middle" x="2196" y="-1370.79" font-family="Times,serif" font-size="16.00">TR</text>
<polyline fill="none" stroke="black" points="2148.5,-1361.59 2243.5,-1361.59 "/>
<text text-anchor="middle" x="2196" y="-1344.79" font-family="Times,serif" font-size="16.00">[V] images_</text>
<polyline fill="none" stroke="black" points="2148.5,-1335.59 2243.5,-1335.59 "/>
<text text-anchor="middle" x="2196" y="-1318.79" font-family="Times,serif" font-size="16.00">[W] images</text>
<polyline fill="none" stroke="black" points="2243.5,-1309.59 2243.5,-1517.59 "/>
<text text-anchor="middle" x="2283.5" y="-1409.79" font-family="Times,serif" font-size="16.00">image [C]</text>
</g>
<!-- apply_warp_ica&#45;&gt;merge_maps -->
<g id="edge21" class="edge"><title>apply_warp_ica:o_warped_image&#45;&gt;merge_maps:i_images_</title>
<path fill="none" stroke="black" d="M1950,-1591.59C1950,-1568.33 2035.5,-1593.7 2054,-1579.59 2139.17,-1514.65 2042.94,-1359.06 2136.96,-1349.09"/>
<polygon fill="black" stroke="black" points="2137.19,-1352.59 2147,-1348.59 2136.84,-1345.6 2137.19,-1352.59"/>
</g>
<!-- t1_image -->
<g id="node16" class="node"><title>t1_image</title>
<polygon fill="#caff70" stroke="black" points="16,-1052.59 16,-1104.59 120,-1104.59 120,-1052.59 16,-1052.59"/>
<text text-anchor="middle" x="68" y="-1087.79" font-family="Times,serif" font-size="16.00">t1_image</text>
<polyline fill="none" stroke="black" points="16,-1078.59 120,-1078.59 "/>
<text text-anchor="middle" x="26" y="-1061.79" font-family="Times,serif" font-size="16.00"> </text>
<polyline fill="none" stroke="black" points="36,-1052.59 36,-1078.59 "/>
<text text-anchor="middle" x="78" y="-1061.79" font-family="Times,serif" font-size="16.00">output [Q]</text>
</g>
<!-- dicom_to_nifti_T1 -->
<g id="node17" class="node"><title>dicom_to_nifti_T1</title>
<polygon fill="#e5e5e5" stroke="black" points="174.5,-1052.59 174.5,-1260.59 445.5,-1260.59 445.5,-1052.59 174.5,-1052.59"/>
<text text-anchor="middle" x="310" y="-1243.79" font-family="Times,serif" font-size="16.00">dicom_to_nifti_T1</text>
<polyline fill="none" stroke="black" points="174.5,-1234.59 445.5,-1234.59 "/>
<text text-anchor="middle" x="239.5" y="-1217.79" font-family="Times,serif" font-size="16.00">anonymize_flag</text>
<polyline fill="none" stroke="black" points="174.5,-1208.59 304.5,-1208.59 "/>
<text text-anchor="middle" x="239.5" y="-1191.79" font-family="Times,serif" font-size="16.00">collapse_flag</text>
<polyline fill="none" stroke="black" points="174.5,-1182.59 304.5,-1182.59 "/>
<text text-anchor="middle" x="239.5" y="-1165.79" font-family="Times,serif" font-size="16.00">gzip_flag</text>
<polyline fill="none" stroke="black" points="174.5,-1156.59 304.5,-1156.59 "/>
<text text-anchor="middle" x="239.5" y="-1139.79" font-family="Times,serif" font-size="16.00">reorient_flag</text>
<polyline fill="none" stroke="black" points="174.5,-1130.59 304.5,-1130.59 "/>
<text text-anchor="middle" x="239.5" y="-1113.79" font-family="Times,serif" font-size="16.00">crop_flag</text>
<polyline fill="none" stroke="black" points="174.5,-1104.59 304.5,-1104.59 "/>
<text text-anchor="middle" x="239.5" y="-1087.79" font-family="Times,serif" font-size="16.00">report_flag</text>
<polyline fill="none" stroke="black" points="174.5,-1078.59 304.5,-1078.59 "/>
<text text-anchor="middle" x="239.5" y="-1061.79" font-family="Times,serif" font-size="16.00">[Q] dicom_image</text>
<polyline fill="none" stroke="black" points="304.5,-1052.59 304.5,-1234.59 "/>
<text text-anchor="middle" x="375" y="-1212.79" font-family="Times,serif" font-size="16.00">directory</text>
<polyline fill="none" stroke="black" points="304.5,-1198.59 445.5,-1198.59 "/>
<text text-anchor="middle" x="375" y="-1176.79" font-family="Times,serif" font-size="16.00">image</text>
<polyline fill="none" stroke="black" points="304.5,-1162.59 445.5,-1162.59 "/>
<text text-anchor="middle" x="375" y="-1140.29" font-family="Times,serif" font-size="16.00">image_reorient</text>
<polyline fill="none" stroke="black" points="304.5,-1125.59 445.5,-1125.59 "/>
<text text-anchor="middle" x="375" y="-1103.79" font-family="Times,serif" font-size="16.00">image_cropped [Q]</text>
<polyline fill="none" stroke="black" points="304.5,-1089.59 445.5,-1089.59 "/>
<text text-anchor="middle" x="375" y="-1067.29" font-family="Times,serif" font-size="16.00">report</text>
</g>
<!-- t1_image&#45;&gt;dicom_to_nifti_T1 -->
<g id="edge33" class="edge"><title>t1_image:o_output&#45;&gt;dicom_to_nifti_T1:i_dicom_image</title>
<path fill="none" stroke="black" d="M120,-1065.59C139.691,-1065.59 147.037,-1065.59 162.677,-1065.59"/>
<polygon fill="black" stroke="black" points="163,-1069.09 173,-1065.59 163,-1062.09 163,-1069.09"/>
</g>
<!-- anat_preprocessing -->
<g id="node19" class="node"><title>anat_preprocessing</title>
<polygon fill="#e5e5e5" stroke="black" points="500,-721.593 500,-1189.59 898,-1189.59 898,-721.593 500,-721.593"/>
<text text-anchor="middle" x="699" y="-1172.79" font-family="Times,serif" font-size="16.00">anat_preprocessing</text>
<polyline fill="none" stroke="black" points="500,-1163.59 898,-1163.59 "/>
<text text-anchor="middle" x="571.5" y="-1146.29" font-family="Times,serif" font-size="16.00">[Q] image</text>
<polyline fill="none" stroke="black" points="500,-1136.59 643,-1136.59 "/>
<text text-anchor="middle" x="571.5" y="-1118.79" font-family="Times,serif" font-size="16.00">anat_directory</text>
<polyline fill="none" stroke="black" points="500,-1108.59 643,-1108.59 "/>
<text text-anchor="middle" x="571.5" y="-1091.29" font-family="Times,serif" font-size="16.00">clobber</text>
<polyline fill="none" stroke="black" points="500,-1081.59 643,-1081.59 "/>
<text text-anchor="middle" x="571.5" y="-1063.79" font-family="Times,serif" font-size="16.00">weak_bias</text>
<polyline fill="none" stroke="black" points="500,-1053.59 643,-1053.59 "/>
<text text-anchor="middle" x="571.5" y="-1035.79" font-family="Times,serif" font-size="16.00">no_reorient</text>
<polyline fill="none" stroke="black" points="500,-1025.59 643,-1025.59 "/>
<text text-anchor="middle" x="571.5" y="-1008.29" font-family="Times,serif" font-size="16.00">no_crop</text>
<polyline fill="none" stroke="black" points="500,-998.593 643,-998.593 "/>
<text text-anchor="middle" x="571.5" y="-980.793" font-family="Times,serif" font-size="16.00">no_bias</text>
<polyline fill="none" stroke="black" points="500,-970.593 643,-970.593 "/>
<text text-anchor="middle" x="571.5" y="-952.793" font-family="Times,serif" font-size="16.00">no_reg</text>
<polyline fill="none" stroke="black" points="500,-942.593 643,-942.593 "/>
<text text-anchor="middle" x="571.5" y="-925.293" font-family="Times,serif" font-size="16.00">no_nonlin_reg</text>
<polyline fill="none" stroke="black" points="500,-915.593 643,-915.593 "/>
<text text-anchor="middle" x="571.5" y="-897.793" font-family="Times,serif" font-size="16.00">no_seg</text>
<polyline fill="none" stroke="black" points="500,-887.593 643,-887.593 "/>
<text text-anchor="middle" x="571.5" y="-870.293" font-family="Times,serif" font-size="16.00">[X] no_subcort_seg</text>
<polyline fill="none" stroke="black" points="500,-860.593 643,-860.593 "/>
<text text-anchor="middle" x="571.5" y="-842.793" font-family="Times,serif" font-size="16.00">bias_smoothing</text>
<polyline fill="none" stroke="black" points="500,-832.593 643,-832.593 "/>
<text text-anchor="middle" x="571.5" y="-814.793" font-family="Times,serif" font-size="16.00">modality</text>
<polyline fill="none" stroke="black" points="500,-804.593 643,-804.593 "/>
<text text-anchor="middle" x="571.5" y="-787.293" font-family="Times,serif" font-size="16.00">no_search</text>
<polyline fill="none" stroke="black" points="500,-777.593 643,-777.593 "/>
<text text-anchor="middle" x="571.5" y="-759.793" font-family="Times,serif" font-size="16.00">bet_f_param</text>
<polyline fill="none" stroke="black" points="500,-749.593 643,-749.593 "/>
<text text-anchor="middle" x="571.5" y="-731.793" font-family="Times,serif" font-size="16.00">no_cleanup</text>
<polyline fill="none" stroke="black" points="643,-721.593 643,-1163.59 "/>
<text text-anchor="middle" x="770.5" y="-1146.79" font-family="Times,serif" font-size="16.00">base_directory</text>
<polyline fill="none" stroke="black" points="643,-1137.59 898,-1137.59 "/>
<text text-anchor="middle" x="770.5" y="-1120.79" font-family="Times,serif" font-size="16.00">anat_directory</text>
<polyline fill="none" stroke="black" points="643,-1111.59 898,-1111.59 "/>
<text text-anchor="middle" x="770.5" y="-1094.79" font-family="Times,serif" font-size="16.00">image</text>
<polyline fill="none" stroke="black" points="643,-1085.59 898,-1085.59 "/>
<text text-anchor="middle" x="770.5" y="-1068.79" font-family="Times,serif" font-size="16.00">biascorr_image</text>
<polyline fill="none" stroke="black" points="643,-1059.59 898,-1059.59 "/>
<text text-anchor="middle" x="770.5" y="-1042.79" font-family="Times,serif" font-size="16.00">orig2std_mat</text>
<polyline fill="none" stroke="black" points="643,-1033.59 898,-1033.59 "/>
<text text-anchor="middle" x="770.5" y="-1016.79" font-family="Times,serif" font-size="16.00">nonroi2roi_mat</text>
<polyline fill="none" stroke="black" points="643,-1007.59 898,-1007.59 "/>
<text text-anchor="middle" x="770.5" y="-990.793" font-family="Times,serif" font-size="16.00">T1_to_MNI_lin_image</text>
<polyline fill="none" stroke="black" points="643,-981.593 898,-981.593 "/>
<text text-anchor="middle" x="770.5" y="-964.793" font-family="Times,serif" font-size="16.00">T1_to_MNI_nonlin_image</text>
<polyline fill="none" stroke="black" points="643,-955.593 898,-955.593 "/>
<text text-anchor="middle" x="770.5" y="-938.793" font-family="Times,serif" font-size="16.00">T1_to_MNI_nonlin_field_image</text>
<polyline fill="none" stroke="black" points="643,-929.593 898,-929.593 "/>
<text text-anchor="middle" x="770.5" y="-912.793" font-family="Times,serif" font-size="16.00">T1_to_MNI_nonlin_jac_image</text>
<polyline fill="none" stroke="black" points="643,-903.593 898,-903.593 "/>
<text text-anchor="middle" x="770.5" y="-886.793" font-family="Times,serif" font-size="16.00">MNI_to_T1_nonlin_field_image [Q]</text>
<polyline fill="none" stroke="black" points="643,-877.593 898,-877.593 "/>
<text text-anchor="middle" x="770.5" y="-860.793" font-family="Times,serif" font-size="16.00">brain_volumes</text>
<polyline fill="none" stroke="black" points="643,-851.593 898,-851.593 "/>
<text text-anchor="middle" x="770.5" y="-834.793" font-family="Times,serif" font-size="16.00">biascorr_brain_image [Q]</text>
<polyline fill="none" stroke="black" points="643,-825.593 898,-825.593 "/>
<text text-anchor="middle" x="770.5" y="-808.793" font-family="Times,serif" font-size="16.00">biascorr_brain_mask_image</text>
<polyline fill="none" stroke="black" points="643,-799.593 898,-799.593 "/>
<text text-anchor="middle" x="770.5" y="-782.793" font-family="Times,serif" font-size="16.00">fast_pve_0_image [Q]</text>
<polyline fill="none" stroke="black" points="643,-773.593 898,-773.593 "/>
<text text-anchor="middle" x="770.5" y="-756.793" font-family="Times,serif" font-size="16.00">fast_pve_1_image</text>
<polyline fill="none" stroke="black" points="643,-747.593 898,-747.593 "/>
<text text-anchor="middle" x="770.5" y="-730.793" font-family="Times,serif" font-size="16.00">fast_pve_2_image [Q]</text>
</g>
<!-- dicom_to_nifti_T1&#45;&gt;anat_preprocessing -->
<g id="edge32" class="edge"><title>dicom_to_nifti_T1:o_image_cropped&#45;&gt;anat_preprocessing:i_image</title>
<path fill="none" stroke="black" d="M447,-1107.59C473.423,-1107.59 471.012,-1140.22 490.001,-1148.63"/>
<polygon fill="black" stroke="black" points="489.514,-1152.1 500,-1150.59 490.86,-1145.24 489.514,-1152.1"/>
</g>
<!-- merge_pves -->
<g id="node18" class="node"><title>merge_pves</title>
<polygon fill="#e5e5e5" stroke="black" points="990,-1026.59 990,-1260.59 1162,-1260.59 1162,-1026.59 990,-1026.59"/>
<text text-anchor="middle" x="1076" y="-1243.79" font-family="Times,serif" font-size="16.00">merge_pves</text>
<polyline fill="none" stroke="black" points="990,-1234.59 1162,-1234.59 "/>
<text text-anchor="middle" x="1033.5" y="-1217.79" font-family="Times,serif" font-size="16.00">[W] t_flag</text>
<polyline fill="none" stroke="black" points="990,-1208.59 1077,-1208.59 "/>
<text text-anchor="middle" x="1033.5" y="-1191.79" font-family="Times,serif" font-size="16.00">x_flag</text>
<polyline fill="none" stroke="black" points="990,-1182.59 1077,-1182.59 "/>
<text text-anchor="middle" x="1033.5" y="-1165.79" font-family="Times,serif" font-size="16.00">y_flag</text>
<polyline fill="none" stroke="black" points="990,-1156.59 1077,-1156.59 "/>
<text text-anchor="middle" x="1033.5" y="-1139.79" font-family="Times,serif" font-size="16.00">z_flag</text>
<polyline fill="none" stroke="black" points="990,-1130.59 1077,-1130.59 "/>
<text text-anchor="middle" x="1033.5" y="-1113.79" font-family="Times,serif" font-size="16.00">a_flag</text>
<polyline fill="none" stroke="black" points="990,-1104.59 1077,-1104.59 "/>
<text text-anchor="middle" x="1033.5" y="-1087.79" font-family="Times,serif" font-size="16.00">TR</text>
<polyline fill="none" stroke="black" points="990,-1078.59 1077,-1078.59 "/>
<text text-anchor="middle" x="1033.5" y="-1061.79" font-family="Times,serif" font-size="16.00">images_</text>
<polyline fill="none" stroke="black" points="990,-1052.59 1077,-1052.59 "/>
<text text-anchor="middle" x="1033.5" y="-1035.79" font-family="Times,serif" font-size="16.00">[Q] images</text>
<polyline fill="none" stroke="black" points="1077,-1026.59 1077,-1234.59 "/>
<text text-anchor="middle" x="1119.5" y="-1126.79" font-family="Times,serif" font-size="16.00">image [W]</text>
</g>
<!-- maths_erode -->
<g id="node20" class="node"><title>maths_erode</title>
<polygon fill="#e5e5e5" stroke="black" points="1306,-721.593 1306,-1111.59 1602,-1111.59 1602,-721.593 1306,-721.593"/>
<text text-anchor="middle" x="1454" y="-1094.79" font-family="Times,serif" font-size="16.00">maths_erode</text>
<polyline fill="none" stroke="black" points="1306,-1085.59 1602,-1085.59 "/>
<text text-anchor="middle" x="1386.5" y="-1068.79" font-family="Times,serif" font-size="16.00">input_datatype</text>
<polyline fill="none" stroke="black" points="1306,-1059.59 1467,-1059.59 "/>
<text text-anchor="middle" x="1386.5" y="-1042.79" font-family="Times,serif" font-size="16.00">[W] image1</text>
<polyline fill="none" stroke="black" points="1306,-1033.59 1467,-1033.59 "/>
<text text-anchor="middle" x="1386.5" y="-1016.79" font-family="Times,serif" font-size="16.00">[Y] operator1</text>
<polyline fill="none" stroke="black" points="1306,-1007.59 1467,-1007.59 "/>
<text text-anchor="middle" x="1386.5" y="-990.793" font-family="Times,serif" font-size="16.00">[Z] operator1_string</text>
<polyline fill="none" stroke="black" points="1306,-981.593 1467,-981.593 "/>
<text text-anchor="middle" x="1386.5" y="-964.793" font-family="Times,serif" font-size="16.00">[A] operator1_number</text>
<polyline fill="none" stroke="black" points="1306,-955.593 1467,-955.593 "/>
<text text-anchor="middle" x="1386.5" y="-938.793" font-family="Times,serif" font-size="16.00">image2</text>
<polyline fill="none" stroke="black" points="1306,-929.593 1467,-929.593 "/>
<text text-anchor="middle" x="1386.5" y="-912.793" font-family="Times,serif" font-size="16.00">[B] operator2</text>
<polyline fill="none" stroke="black" points="1306,-903.593 1467,-903.593 "/>
<text text-anchor="middle" x="1386.5" y="-886.793" font-family="Times,serif" font-size="16.00">operator2_string</text>
<polyline fill="none" stroke="black" points="1306,-877.593 1467,-877.593 "/>
<text text-anchor="middle" x="1386.5" y="-860.793" font-family="Times,serif" font-size="16.00">operator2_number</text>
<polyline fill="none" stroke="black" points="1306,-851.593 1467,-851.593 "/>
<text text-anchor="middle" x="1386.5" y="-834.793" font-family="Times,serif" font-size="16.00">image3</text>
<polyline fill="none" stroke="black" points="1306,-825.593 1467,-825.593 "/>
<text text-anchor="middle" x="1386.5" y="-808.793" font-family="Times,serif" font-size="16.00">operator3</text>
<polyline fill="none" stroke="black" points="1306,-799.593 1467,-799.593 "/>
<text text-anchor="middle" x="1386.5" y="-782.793" font-family="Times,serif" font-size="16.00">operator3_string</text>
<polyline fill="none" stroke="black" points="1306,-773.593 1467,-773.593 "/>
<text text-anchor="middle" x="1386.5" y="-756.793" font-family="Times,serif" font-size="16.00">operator3_number</text>
<polyline fill="none" stroke="black" points="1306,-747.593 1467,-747.593 "/>
<text text-anchor="middle" x="1386.5" y="-730.793" font-family="Times,serif" font-size="16.00">output_datatype</text>
<polyline fill="none" stroke="black" points="1467,-721.593 1467,-1085.59 "/>
<text text-anchor="middle" x="1534.5" y="-899.793" font-family="Times,serif" font-size="16.00">output_image [W]</text>
</g>
<!-- merge_pves&#45;&gt;maths_erode -->
<g id="edge5" class="edge"><title>merge_pves:o_image&#45;&gt;maths_erode:i_image1</title>
<path fill="none" stroke="black" d="M1120,-1025.59C1120,-1006.92 1143.39,-1025.07 1162,-1026.59 1222.46,-1031.52 1239.05,-1045 1294.9,-1046.46"/>
<polygon fill="black" stroke="black" points="1294.96,-1049.97 1305,-1046.59 1295.05,-1042.97 1294.96,-1049.97"/>
</g>
<!-- anat_preprocessing&#45;&gt;feat_preprocessing -->
<g id="edge36" class="edge"><title>anat_preprocessing:o_biascorr_brain_image&#45;&gt;feat_preprocessing:i_t1_brain_image</title>
<path fill="none" stroke="black" d="M898,-838.593C947.754,-838.593 898.292,-767.24 934,-732.593 1028.74,-640.664 1134.1,-747.511 1218,-645.593 1264.6,-588.988 1185.38,-327.934 1243.87,-302.575"/>
<polygon fill="black" stroke="black" points="1244.86,-305.948 1254,-300.593 1243.51,-299.078 1244.86,-305.948"/>
</g>
<!-- anat_preprocessing&#45;&gt;apply_warp_ica -->
<g id="edge25" class="edge"><title>anat_preprocessing:o_MNI_to_T1_nonlin_field_image&#45;&gt;apply_warp_ica:i_warp_coef_image</title>
<path fill="none" stroke="black" d="M898,-890.593C940.301,-890.593 913.354,-1232.67 934,-1269.59 1147.16,-1650.78 1282.69,-1862.27 1714.74,-1865.55"/>
<polygon fill="black" stroke="black" points="1714.99,-1869.05 1725,-1865.59 1715.01,-1862.05 1714.99,-1869.05"/>
</g>
<!-- anat_preprocessing&#45;&gt;merge_pves -->
<g id="edge22" class="edge"><title>anat_preprocessing:o_fast_pve_2_image&#45;&gt;merge_pves:i_images</title>
<path fill="none" stroke="black" d="M898,-734.593C961.175,-734.593 895.725,-966.332 934,-1016.59 947.858,-1034.79 959.032,-1038.71 978.875,-1039.44"/>
<polygon fill="black" stroke="black" points="978.949,-1042.94 989,-1039.59 979.054,-1035.94 978.949,-1042.94"/>
</g>
<!-- anat_preprocessing&#45;&gt;merge_pves -->
<g id="edge23" class="edge"><title>anat_preprocessing:o_fast_pve_0_image&#45;&gt;merge_pves:i_images</title>
<path fill="none" stroke="black" d="M898,-786.593C949.733,-786.593 902.078,-975.883 934,-1016.59 948.114,-1034.59 959.102,-1038.66 978.889,-1039.43"/>
<polygon fill="black" stroke="black" points="978.945,-1042.93 989,-1039.59 979.058,-1035.93 978.945,-1042.93"/>
</g>
<!-- maths_erode&#45;&gt;apply_warp_pves -->
<g id="edge10" class="edge"><title>maths_erode:o_output_image&#45;&gt;apply_warp_pves:i_source_image</title>
<path fill="none" stroke="black" d="M1603,-903.593C1683.51,-903.593 1646.44,-1034.57 1716.85,-1045.82"/>
<polygon fill="black" stroke="black" points="1716.76,-1049.33 1727,-1046.59 1717.29,-1042.35 1716.76,-1049.33"/>
</g>
<!-- apply_warp_pves&#45;&gt;merge_maps -->
<g id="edge26" class="edge"><title>apply_warp_pves:o_warped_image&#45;&gt;merge_maps:i_images</title>
<path fill="none" stroke="black" d="M2017,-890.593C2213.98,-890.593 1955.88,-1307.54 2136.86,-1322.2"/>
<polygon fill="black" stroke="black" points="2136.87,-1325.7 2147,-1322.59 2137.14,-1318.71 2136.87,-1325.7"/>
</g>
<!-- const_anat_preprocessing_no_subcort_seg_0 -->
<g id="node22" class="node"><title>const_anat_preprocessing_no_subcort_seg_0</title>
<polygon fill="#ffbbff" stroke="black" points="156,-847.593 156,-899.593 464,-899.593 464,-847.593 156,-847.593"/>
<text text-anchor="middle" x="310" y="-882.793" font-family="Times,serif" font-size="16.00">const_anat_preprocessing_no_subcort_seg_0</text>
<polyline fill="none" stroke="black" points="156,-873.593 464,-873.593 "/>
<text text-anchor="middle" x="310" y="-856.793" font-family="Times,serif" font-size="16.00">[[&#39;True&#39;]] [X]</text>
</g>
<!-- const_anat_preprocessing_no_subcort_seg_0&#45;&gt;anat_preprocessing -->
<g id="edge31" class="edge"><title>const_anat_preprocessing_no_subcort_seg_0:o_output&#45;&gt;anat_preprocessing:i_no_subcort_seg</title>
<path fill="none" stroke="black" d="M464.247,-873.593C472.848,-873.593 481.413,-873.593 489.824,-873.593"/>
<polygon fill="black" stroke="black" points="490,-877.093 500,-873.593 490,-870.093 490,-877.093"/>
</g>
<!-- const_merge_pves_t_flag_0 -->
<g id="node23" class="node"><title>const_merge_pves_t_flag_0</title>
<polygon fill="#ffbbff" stroke="black" points="600,-1208.59 600,-1260.59 798,-1260.59 798,-1208.59 600,-1208.59"/>
<text text-anchor="middle" x="699" y="-1243.79" font-family="Times,serif" font-size="16.00">const_merge_pves_t_flag_0</text>
<polyline fill="none" stroke="black" points="600,-1234.59 798,-1234.59 "/>
<text text-anchor="middle" x="699" y="-1217.79" font-family="Times,serif" font-size="16.00">[[&#39;1&#39;]] [W]</text>
</g>
<!-- const_merge_pves_t_flag_0&#45;&gt;merge_pves -->
<g id="edge16" class="edge"><title>const_merge_pves_t_flag_0:o_output&#45;&gt;merge_pves:i_t_flag</title>
<path fill="none" stroke="black" d="M798.498,-1234.58C879.647,-1231.78 902.254,-1222.41 978.865,-1221.64"/>
<polygon fill="black" stroke="black" points="979.017,-1225.14 989,-1221.59 978.983,-1218.14 979.017,-1225.14"/>
</g>
<!-- const_maths_erode_operator1_0 -->
<g id="node24" class="node"><title>const_maths_erode_operator1_0</title>
<polygon fill="#ffbbff" stroke="black" points="962.5,-955.593 962.5,-1007.59 1189.5,-1007.59 1189.5,-955.593 962.5,-955.593"/>
<text text-anchor="middle" x="1076" y="-990.793" font-family="Times,serif" font-size="16.00">const_maths_erode_operator1_0</text>
<polyline fill="none" stroke="black" points="962.5,-981.593 1189.5,-981.593 "/>
<text text-anchor="middle" x="1076" y="-964.793" font-family="Times,serif" font-size="16.00">[[&#39;&#45;kernel&#39;]] [Y]</text>
</g>
<!-- const_maths_erode_operator1_0&#45;&gt;maths_erode -->
<g id="edge6" class="edge"><title>const_maths_erode_operator1_0:o_output&#45;&gt;maths_erode:i_operator1</title>
<path fill="none" stroke="black" d="M1189.51,-1004.56C1229.07,-1011.9 1269.77,-1018.57 1294.71,-1020.21"/>
<polygon fill="black" stroke="black" points="1294.88,-1023.72 1305,-1020.59 1295.14,-1016.72 1294.88,-1023.72"/>
</g>
<!-- const_maths_erode_operator1_string_0 -->
<g id="node25" class="node"><title>const_maths_erode_operator1_string_0</title>
<polygon fill="#ffbbff" stroke="black" points="940,-884.593 940,-936.593 1212,-936.593 1212,-884.593 940,-884.593"/>
<text text-anchor="middle" x="1076" y="-919.793" font-family="Times,serif" font-size="16.00">const_maths_erode_operator1_string_0</text>
<polyline fill="none" stroke="black" points="940,-910.593 1212,-910.593 "/>
<text text-anchor="middle" x="1076" y="-893.793" font-family="Times,serif" font-size="16.00">[[&#39;box&#39;]] [Z]</text>
</g>
<!-- const_maths_erode_operator1_string_0&#45;&gt;maths_erode -->
<g id="edge3" class="edge"><title>const_maths_erode_operator1_string_0:o_output&#45;&gt;maths_erode:i_operator1_string</title>
<path fill="none" stroke="black" d="M1212.27,-936.697C1254.01,-953.191 1256.27,-988.766 1294.96,-993.956"/>
<polygon fill="black" stroke="black" points="1294.8,-997.453 1305,-994.593 1295.24,-990.467 1294.8,-997.453"/>
</g>
<!-- const_maths_erode_operator1_number_0 -->
<g id="node26" class="node"><title>const_maths_erode_operator1_number_0</title>
<polygon fill="#ffbbff" stroke="black" points="934,-813.593 934,-865.593 1218,-865.593 1218,-813.593 934,-813.593"/>
<text text-anchor="middle" x="1076" y="-848.793" font-family="Times,serif" font-size="16.00">const_maths_erode_operator1_number_0</text>
<polyline fill="none" stroke="black" points="934,-839.593 1218,-839.593 "/>
<text text-anchor="middle" x="1076" y="-822.793" font-family="Times,serif" font-size="16.00">[[&#39;5&#39;]] [A]</text>
</g>
<!-- const_maths_erode_operator1_number_0&#45;&gt;maths_erode -->
<g id="edge4" class="edge"><title>const_maths_erode_operator1_number_0:o_output&#45;&gt;maths_erode:i_operator1_number</title>
<path fill="none" stroke="black" d="M1218.3,-865.769C1266.63,-894.099 1247.89,-959.949 1295.03,-967.819"/>
<polygon fill="black" stroke="black" points="1294.76,-971.309 1305,-968.593 1295.3,-964.33 1294.76,-971.309"/>
</g>
<!-- const_maths_erode_operator2_0 -->
<g id="node27" class="node"><title>const_maths_erode_operator2_0</title>
<polygon fill="#ffbbff" stroke="black" points="962.5,-742.593 962.5,-794.593 1189.5,-794.593 1189.5,-742.593 962.5,-742.593"/>
<text text-anchor="middle" x="1076" y="-777.793" font-family="Times,serif" font-size="16.00">const_maths_erode_operator2_0</text>
<polyline fill="none" stroke="black" points="962.5,-768.593 1189.5,-768.593 "/>
<text text-anchor="middle" x="1076" y="-751.793" font-family="Times,serif" font-size="16.00">[[&#39;&#45;ero&#39;]] [B]</text>
</g>
<!-- const_maths_erode_operator2_0&#45;&gt;maths_erode -->
<g id="edge9" class="edge"><title>const_maths_erode_operator2_0:o_output&#45;&gt;maths_erode:i_operator2</title>
<path fill="none" stroke="black" d="M1189.59,-791.741C1201.92,-795.481 1212.12,-799.482 1218,-803.593 1266.9,-837.789 1244.66,-907.746 1294.77,-915.827"/>
<polygon fill="black" stroke="black" points="1294.77,-919.336 1305,-916.593 1295.29,-912.356 1294.77,-919.336"/>
</g>
<!-- merge_maps&#45;&gt;dual_regression -->
<g id="edge20" class="edge"><title>merge_maps:o_image&#45;&gt;dual_regression:i_group_ica_maps</title>
<path fill="none" stroke="black" d="M2325,-1413.59C2366.14,-1413.59 2372.35,-1446.46 2407.76,-1451.85"/>
<polygon fill="black" stroke="black" points="2407.77,-1455.36 2418,-1452.59 2408.28,-1448.38 2407.77,-1455.36"/>
</g>
<!-- dualreg_results -->
<g id="node30" class="node"><title>dualreg_results</title>
<polygon fill="#b0e2ff" stroke="black" points="2751,-1433.59 2751,-1485.59 2865,-1485.59 2865,-1433.59 2751,-1433.59"/>
<text text-anchor="middle" x="2808" y="-1468.79" font-family="Times,serif" font-size="16.00">dualreg_results</text>
<polyline fill="none" stroke="black" points="2751,-1459.59 2865,-1459.59 "/>
<text text-anchor="middle" x="2793" y="-1442.79" font-family="Times,serif" font-size="16.00">[C] input</text>
<polyline fill="none" stroke="black" points="2835,-1433.59 2835,-1459.59 "/>
<text text-anchor="middle" x="2850" y="-1442.79" font-family="Times,serif" font-size="16.00"> </text>
</g>
<!-- dual_regression&#45;&gt;dualreg_results -->
<g id="edge11" class="edge"><title>dual_regression:o_output_directory&#45;&gt;dualreg_results:i_input</title>
<path fill="none" stroke="black" d="M2715,-1446.59C2727,-1446.59 2732.25,-1446.59 2740.88,-1446.59"/>
<polygon fill="black" stroke="black" points="2741,-1450.09 2751,-1446.59 2741,-1443.09 2741,-1450.09"/>
</g>
<!-- const_merge_maps_t_flag_0 -->
<g id="node31" class="node"><title>const_merge_maps_t_flag_0</title>
<polygon fill="#ffbbff" stroke="black" points="1770.5,-1478.59 1770.5,-1530.59 1973.5,-1530.59 1973.5,-1478.59 1770.5,-1478.59"/>
<text text-anchor="middle" x="1872" y="-1513.79" font-family="Times,serif" font-size="16.00">const_merge_maps_t_flag_0</text>
<polyline fill="none" stroke="black" points="1770.5,-1504.59 1973.5,-1504.59 "/>
<text text-anchor="middle" x="1872" y="-1487.79" font-family="Times,serif" font-size="16.00">[[&#39;1&#39;]] [C]</text>
</g>
<!-- const_merge_maps_t_flag_0&#45;&gt;merge_maps -->
<g id="edge27" class="edge"><title>const_merge_maps_t_flag_0:o_output&#45;&gt;merge_maps:i_t_flag</title>
<path fill="none" stroke="black" d="M1973.54,-1504.59C2022.4,-1504.59 2082.11,-1504.59 2136.84,-1504.59"/>
<polygon fill="black" stroke="black" points="2137,-1508.09 2147,-1504.59 2137,-1501.09 2137,-1508.09"/>
</g>
</g>
</svg>
