digraph G {
	rankdir = "LR"
	splines=true;
	node [ fontsize="16" shape="record" ];

	"t1_source" [ style=filled fillcolor=darkolivegreen1 label="<id>t1_source|{{}|{<o_output>output [N] }}" ];
	"label_source" [ style=filled fillcolor=darkolivegreen1 label="<id>label_source|{{}|{<o_output>output [M] }}" ];
	"bin_edge" [ style=filled fillcolor=plum1 label="<o_id>bin_edge|<output>[[\'0.5\']]  [O] " ];
	"slicesdir_report" [ style=filled fillcolor=gray90 label="<id>slicesdir_report|{{<i_t1_image> [P] t1_image|<i_label_image> [P] label_image}|{<o_dummy>dummy|<o_report>report [P] }}" ];
	"aggregate_volumes" [ style=filled fillcolor=gray90 label="<id>aggregate_volumes|{{<i_volume_stats> [M] volume_stats}|{<o_volume_csv>volume_csv [M] }}" ];
	"dicom_to_nifti" [ style=filled fillcolor=gray90 label="<id>dicom_to_nifti|{{<i_anonymize_flag>anonymize_flag|<i_collapse_flag>collapse_flag|<i_gzip_flag>gzip_flag|<i_reorient_flag>reorient_flag|<i_crop_flag>crop_flag|<i_report_flag>report_flag|<i_dicom_image> [N] dicom_image}|{<o_directory>directory|<o_image>image|<o_image_reorient>image_reorient|<o_image_cropped>image_cropped [N] |<o_report>report}}" ];
	"add" [ style=filled fillcolor=gray90 label="<id>add|{{<i_left_hand> [M] left_hand|<i_right_hand> [O] right_hand}|{<o_result>result [M] }}" ];
	"first_segmentation" [ style=filled fillcolor=gray90 label="<id>first_segmentation|{{<i_boundary_correction_flag>boundary_correction_flag|<i_brain_extraction_flag>brain_extraction_flag|<i_structure>structure|<i_registration_matrix>registration_matrix|<i_staging_flag>staging_flag|<i_cleanup_flag>cleanup_flag|<i_verbose_flag>verbose_flag|<i_t1_image> [N] t1_image}|{<o_basename>basename|<o_firstseg>firstseg [N] |<o_origsegs>origsegs|<o_log_directory>log_directory}}" ];
	"volume_stats" [ style=filled fillcolor=gray90 label="<id>volume_stats|{{<i_separate_output_flag>separate_output_flag|<i_image> [N] image|<i_lower_threshold> [M] lower_threshold|<i_upper_threshold> [M] upper_threshold|<i_abs_flag>abs_flag|<i_nan_flag>nan_flag|<i_mask>mask|<i_difference>difference}|{<o_robust_intensity>robust_intensity|<o_intensity>intensity|<o_volume>volume|<o_nonzero_volume>nonzero_volume [MxN] }}" ];
	"subtract" [ style=filled fillcolor=gray90 label="<id>subtract|{{<i_left_hand> [M] left_hand|<i_right_hand> [O] right_hand}|{<o_result>result [M] }}" ];
	"QC_report" [ style=filled fillcolor=lightskyblue1 label="<id>QC_report|{{<i_input> [P] input}|{}}" ];
	"subcortical_volumes" [ style=filled fillcolor=lightskyblue1 label="<id>subcortical_volumes|{{<i_input> [M] input}|{}}" ];
	"slicesdir_report":o_report -> "QC_report":i_input [];
	"aggregate_volumes":o_volume_csv -> "subcortical_volumes":i_input [];
	"volume_stats":o_nonzero_volume -> "aggregate_volumes":i_volume_stats [ color=blue weight=3 penwidth=3];
	"first_segmentation":o_firstseg -> "slicesdir_report":i_label_image [ color=blue weight=3 penwidth=3];
	"dicom_to_nifti":o_image_cropped -> "slicesdir_report":i_t1_image [ color=blue weight=3 penwidth=3];
	"add":o_result -> "volume_stats":i_upper_threshold [];
	"bin_edge":o_output -> "add":i_right_hand [];
	"label_source":o_output -> "add":i_left_hand [];
	"bin_edge":o_output -> "subtract":i_right_hand [];
	"label_source":o_output -> "subtract":i_left_hand [];
	"subtract":o_result -> "volume_stats":i_lower_threshold [];
	"first_segmentation":o_firstseg -> "volume_stats":i_image [];
	"dicom_to_nifti":o_image_cropped -> "first_segmentation":i_t1_image [];
	"t1_source":o_output -> "dicom_to_nifti":i_dicom_image [];
}